10 0.00245264
10 0.000471144
10 0.00113015
10 0.00100803
10 0.000423768
10 0.000752619
10 0.000457488
10 0.000424443
10 0.000435312
10 0.00318597
10 0.00398079
10 0.000466394
10 0.000638318
10 0.000459748
10 0.00102464
10 0.0004945
10 0.00100473
10 0.000426018
10 0.000651439
10 0.000637978
10 0.000687629
10 0.000930102
10 0.000780449
10 0.00064152
10 0.000727427
10 0.000705515
10 0.00194024
10 0.00111608
10 0.000662173
10 0.000630745
20 0.00304661
20 0.00337619
20 0.00313836
20 0.00357563
20 0.00302644
20 0.00317698
20 0.00345584
20 0.00328051
20 0.00317081
20 0.00330841
20 0.0040142
20 0.00382864
20 0.00323267
20 0.00330748
20 0.00325993
20 0.00311647
20 0.00338819
20 0.00322247
20 0.00310848
20 0.00342189
20 0.00295092
20 0.00316571
20 0.00419405
20 0.00255252
20 0.00298937
20 0.00329966
20 0.00245588
20 0.00226235
20 0.00242463
20 0.00243087
30 0.00734501
30 0.00726512
30 0.00734771
30 0.00698775
30 0.00674878
30 0.00635382
30 0.0067077
30 0.00736929
30 0.00674662
30 0.00742778
30 0.00686652
30 0.00734928
30 0.00676431
30 0.00708693
30 0.00715807
30 0.00717205
30 0.00719854
30 0.00652681
30 0.00714502
30 0.00588144
30 0.00776067
30 0.00668797
30 0.00732059
30 0.00664217
30 0.0066129
30 0.00729448
30 0.0069251
30 0.00825997
30 0.00685299
30 0.00762123
40 0.016605
40 0.0178861
40 0.016945
40 0.0165524
40 0.0171418
40 0.0167345
40 0.0179041
40 0.0184485
40 0.0164776
40 0.0186121
40 0.0166305
40 0.0173666
40 0.0196106
40 0.0163621
40 0.0182234
40 0.0182889
40 0.0174845
40 0.0176518
40 0.0170462
40 0.018029
40 0.0175279
40 0.0177449
40 0.0178449
40 0.0177619
40 0.0176127
40 0.0186412
40 0.0158316
40 0.0177658
40 0.0183444
40 0.019713
50 0.0389406
50 0.0396266
50 0.0391373
50 0.038493
50 0.0409934
50 0.0403963
50 0.0423414
50 0.0394973
50 0.0402853
50 0.0385668
50 0.0420538
50 0.0400543
50 0.0412476
50 0.0426584
50 0.0408996
50 0.0415697
50 0.0394958
50 0.0405799
50 0.0386278
50 0.0423105
50 0.0344829
50 0.0322748
50 0.0298096
50 0.0291561
50 0.03249
50 0.0314966
50 0.031652
50 0.0307352
50 0.0326889
50 0.0320452
60 0.0583356
60 0.0572773
60 0.0597514
60 0.0580237
60 0.0564644
60 0.0604564
60 0.0595739
60 0.0577882
60 0.057608
60 0.0570034
60 0.0513032
60 0.0507392
60 0.0470049
60 0.0521341
60 0.0512481
60 0.0524169
60 0.0491768
60 0.0506239
60 0.0511782
60 0.0502564
60 0.0524698
60 0.0517598
60 0.051405
60 0.0508609
60 0.0530466
60 0.0485612
60 0.0514431
60 0.0502264
60 0.0875065
60 0.0828997
70 0.0906164
70 0.0931426
70 0.0899957
70 0.0926245
70 0.0892138
70 0.0911042
70 0.0906818
70 0.088881
70 0.0905372
70 0.0970062
70 0.0919486
70 0.0945699
70 0.0944524
70 0.0909631
70 0.0969712
70 0.0909018
70 0.100147
70 0.09556
70 0.106685
70 0.106686
70 0.106918
70 0.10624
70 0.110646
70 0.113144
70 0.108641
70 0.117308
70 0.127346
70 0.119814
70 0.0888079
70 0.0861959
80 0.170513
80 0.164569
80 0.159017
80 0.15718
80 0.16798
80 0.162411
80 0.164273
80 0.163771
80 0.163692
80 0.160442
80 0.17407
80 0.167181
80 0.171121
80 0.176769
80 0.172597
80 0.175481
80 0.178916
80 0.174115
80 0.184007
80 0.171207
80 0.184549
80 0.146327
80 0.145829
80 0.146919
80 0.144026
80 0.142388
80 0.148022
80 0.144688
80 0.120718
80 0.1167
90 0.244517
90 0.248256
90 0.239661
90 0.235611
90 0.236969
90 0.238019
90 0.234691
90 0.244489
90 0.245339
90 0.246767
90 0.244749
90 0.24009
90 0.23663
90 0.242705
90 0.236921
90 0.270824
90 0.271433
90 0.26408
90 0.275061
90 0.263749
90 0.25837
90 0.263821
90 0.223595
90 0.23155
90 0.226443
90 0.225679
90 0.230474
90 0.28769
90 0.286094
90 0.282462
100 0.29427
100 0.291391
100 0.300137
100 0.304556
100 0.367173
100 0.367509
100 0.306868
100 0.30571
100 0.301881
100 0.296995
100 0.301344
100 0.300981
100 0.306879
100 0.299977
100 0.294247
100 0.291402
100 0.306016
100 0.309712
100 0.310358
100 0.372571
100 0.363741
100 0.365406
100 0.289596
100 0.295691
100 0.283267
100 0.2637
100 0.255307
100 0.259129
100 0.258457
100 0.357951
200 2.59736
200 2.58539
200 2.47995
200 2.91168
200 2.83806
200 2.53938
200 2.50473
200 2.53155
200 2.44379
200 2.2135
200 2.83059
200 2.66416
200 2.43757
200 2.54027
200 2.85108
200 2.37505
200 2.56734
200 2.84043
200 2.31127
200 2.56523
200 2.80915
200 2.49642
200 2.88423
200 2.50854
200 2.46231
200 2.28211
200 2.56116
200 2.85042
200 2.63765
200 2.59644
300 8.24167
300 8.50659
300 8.46054
300 8.93057
300 8.77305
300 8.64044
300 8.29123
300 9.23167
300 8.2862
300 8.41494
300 8.87034
300 9.09094
300 8.60523
300 8.66631
300 8.14921
300 10.4324
300 8.72764
300 7.16822
300 9.08683
300 7.84832
300 8.33667
300 8.98019
300 9.18122
300 8.46685
300 8.78401
300 8.14486
300 8.58082
300 8.89808
300 9.00452
300 8.72638
400 21.0466
400 20.6506
400 19.5659
400 21.5222
400 18.3692
400 18.5677
400 19.8878
400 21.6132
400 18.7385
400 23.6058
400 19.9546
400 19.45
400 20.9856
400 19.9347
400 18.1535
400 22.8744
400 20.35
400 20.1216
400 19.4902
400 20.2666
400 19.4524
400 18.8554
400 21.6081
400 20.6985
400 21.3388
400 19.7521
400 22.1143
400 19.7528
400 21.2124
400 21.7702
500 38.2896
500 38.1078
500 39.423
500 37.9146
500 42.8104
500 41.2905
500 38.5353
500 40.7974
500 41.5974
500 43.6106
500 40.6741
500 40.7221
500 37.3451
500 42.8641
500 38.6612
500 40.4391
500 37.9907
500 39.293
500 40.2998
500 38.4021
500 47.5347
500 39.0432
500 42.304
500 39.849
500 43.071
500 39.6856
500 37.0964
500 35.9579
500 37.8022
500 43.2512
600 65.5306
600 69.8195
600 75.4333
600 68.2972
600 70.9713
600 73.4239
600 73.4706
600 69.1251
600 68.3444
600 66.3736
600 76.3434
600 70.125
600 70.6581
600 72.44
600 82.4615
600 69.8658
600 70.2094
600 68.6421
600 75.0625
600 72.2647
600 67.2323
600 66.234
600 66.9318
600 72.7604
600 71.5734
600 72.7721
600 73.1746
600 70.2139
600 63.9282
600 72.0319
700 118.842
700 112.214
700 109.629
700 113.961
700 107.962
700 117.863
700 116.124
700 114.945
700 121.309
700 123.737
700 120.32
700 114.543
700 118.164
700 115.203
700 125.752
700 113.281
700 122.848
700 115.177
700 107.894
700 112.699
700 105.079
700 108.606
700 109.665
700 126.763
700 107.937
700 107.881
700 115.079
700 113.492
700 115.367
700 104.67
800 171.978
800 174.105
800 183.215
800 171.224
800 183.333
800 181.166
800 173.949
800 181.605
800 178.71
800 179.637
800 184.987
800 172.672
800 171.6
800 172.93
800 177.295
800 166.591
800 182.545
800 181.723
800 175.453
800 173.505
800 181.157
800 176.408
800 176.866
800 182.448
800 178.565
800 171.905
800 174.014
800 170.985
800 178.494
800 174.88
900 246.749
900 245.456
900 253.017
900 250.236
900 247.904
900 254.302
900 256.805
900 251.616
900 262.743
900 239.43
900 262.968
900 255.11
900 256.341
900 248.115
900 261.225
900 248.181
900 252.841
900 235.497
900 261.793
900 241.214
900 243.149
900 259.698
900 254.559
900 259.249
900 261.136
900 257.661
900 269.739
900 249.723
900 259.066
900 252.687
1000 374.188
1000 360.413
1000 364.632
1000 360.205
1000 350.547
1000 345.209
1000 339.945
1000 356.144
1000 340.833
1000 340.697
1000 359.13
1000 379.238
1000 353.026
1000 340.84
1000 348.909
1000 361.124
1000 341.155
1000 359.802
1000 344.282
1000 349.127
1000 348.038
1000 369.321
1000 343.952
1000 369.833
1000 349.007
1000 373.607
1000 336.379
1000 355.846
1000 343.326
1000 362.153
